{
    "exportFormatVersion": 2,
    "exportTime": "2018-12-19 09:16:54",
    "containerVersion": {
        "path": "accounts/4575119547/containers/10662323/versions/3",
        "accountId": "4575119547",
        "containerId": "10662323",
        "containerVersionId": "3",
        "container": {
            "path": "accounts/4575119547/containers/10662323",
            "accountId": "4575119547",
            "containerId": "10662323",
            "name": "SampleTesting3",
            "publicId": "GTM-KPNGG3J",
            "usageContext": [
                "ANDROID"
            ],
            "fingerprint": "1545199250368",
            "tagManagerUrl": "https://tagmanager.google.com/#/container/accounts/4575119547/containers/10662323/workspaces?apiLink=container"
        },
        "tag": [
            {
                "accountId": "4575119547",
                "containerId": "10662323",
                "tagId": "2",
                "name": "Product Click Tag",
                "type": "ua",
                "parameter": [
                    {
                        "type": "BOOLEAN",
                        "key": "nonInteraction",
                        "value": "false"
                    },
                    {
                        "type": "BOOLEAN",
                        "key": "useEcommerceDataLayer",
                        "value": "true"
                    },
                    {
                        "type": "TEMPLATE",
                        "key": "eventCategory",
                        "value": "Ecommerce"
                    },
                    {
                        "type": "TEMPLATE",
                        "key": "trackType",
                        "value": "TRACK_EVENT"
                    },
                    {
                        "type": "TEMPLATE",
                        "key": "eventAction",
                        "value": "Product Click"
                    },
                    {
                        "type": "BOOLEAN",
                        "key": "enableEcommerce",
                        "value": "true"
                    },
                    {
                        "type": "TEMPLATE",
                        "key": "trackingId",
                        "value": "UA-131173046-1"
                    }
                ],
                "fingerprint": "1545199229051",
                "firingTriggerId": [
                    "4"
                ],
                "tagFiringOption": "ONCE_PER_EVENT"
            }
        ],
        "trigger": [
            {
                "accountId": "4575119547",
                "containerId": "10662323",
                "triggerId": "4",
                "name": "ProductClick Trigger",
                "type": "ALWAYS",
                "filter": [
                    {
                        "type": "EQUALS",
                        "parameter": [
                            {
                                "type": "TEMPLATE",
                                "key": "arg0",
                                "value": "{{Event}}"
                            },
                            {
                                "type": "TEMPLATE",
                                "key": "arg1",
                                "value": "productClick"
                            }
                        ]
                    }
                ],
                "fingerprint": "1545199140604"
            }
        ],
        "variable": [
            {
                "accountId": "4575119547",
                "containerId": "10662323",
                "variableId": "1",
                "name": "Screen Name",
                "type": "e",
                "fingerprint": "1545131523938"
            }
        ],
        "builtInVariable": [
            {
                "accountId": "4575119547",
                "containerId": "10662323",
                "type": "EVENT",
                "name": "Event"
            },
            {
                "accountId": "4575119547",
                "containerId": "10662323",
                "type": "APP_ID",
                "name": "App ID"
            },
            {
                "accountId": "4575119547",
                "containerId": "10662323",
                "type": "APP_NAME",
                "name": "App Name"
            },
            {
                "accountId": "4575119547",
                "containerId": "10662323",
                "type": "APP_VERSION_CODE",
                "name": "App Version Code"
            }
        ],
        "fingerprint": "1545200810327",
        "tagManagerUrl": "https://tagmanager.google.com/#/versions/accounts/4575119547/containers/10662323/versions/3?apiLink=version"
    }
}